11 04 10 00 39 39 39 39 30 37 38 39 30 30 30 30 32 39 33 39
0D 04 14 00 30 30 30 30 30 30 30 30 31 30 30 34 31 30 30 32 20 20 20 20
FA 03 0C 00 37 37 31 35 36 34 31 37 33 35 20 20
10 04 04 00 19 00 00 00
F4 03 04 00 0C 16 58 58
35 04 06 00 31 04 22 D0 AD 77
0E 04 04 00 02 00 00 00
12 04 04 00 0E 00 00 00
1E 04 01 00 02
FC 03 02 00 14 69
23 04 3C 00 06 04 1F 00 8C EB E8 EC 20 44 65 66 65 6E 64 65 72 20 4D 42 2D 31 35 30 20 7B 31 32 30 7D 20 50 53 2F 32 37 04 02 00 14 69 FF 03 03 00 03 E8 03 13 04 02 00 14 69 4E 04 02 00 07 10
FD 03 15 00 82 A5 A4 E3 E9 A8 A9 20 AA A0 E1 E1 A8 E0 20 8F A5 E2 E0 AE A2
07 04 02 00 14 69
39 04 01 00 00
4E 04 02 00 07 10
18 04 16 00 87 80 8E 20 92 8E 90 83 8E 82 9B 89 20 8E 81 9A 85 8A 92 20 4E 31
F1 03 1E 00 31 30 39 30 39 37 2C 20 8C AE E1 AA A2 A0 2C 20 E3 AB 2E 20 88 AB EC A8 AD AA A0 2C 20 39
1F 04 01 00 01



Tlv(Tag=1041, Length=16, Value=9999078900002939)
Tlv(Tag=1037, Length=20, Value=0000000010041002    )
Tlv(Tag=1018, Length=12, Value=7715641735  )
Tlv(Tag=1040, Length=4, Value=25)
Tlv(Tag=1012, Length=4, Value=2016-12-19T20:17)
Tlv(Tag=1077, Length=6, Value=584101239)
Tlv(Tag=1038, Length=4, Value=2)
Tlv(Tag=1042, Length=4, Value=14)
Tlv(Tag=1054, Length=1, Value=2)
Tlv(Tag=1020, Length=2, Value=26900)